Session05 Exploratory Data Analysis in R
…
# introduce id column
mtcars$id <- 1:dim(mtcars)[1]

# wide to long transform
mtcarsPlot <- mtcars %>%
  dplyr::select(id, mpg, disp, hp, drat, wt, qsec) %>% 
  tidyr::pivot_longer(cols = -id,
                      names_to = "Measurement",
                      values_to = "Value")

head(mtcarsPlot, 30)

## # A tibble: 30 × 3
##       id Measurement  Value
##    <int> <chr>        <dbl>
##  1     1 mpg          21   
##  2     1 disp        160   
##  3     1 hp          110   
##  4     1 drat          3.9 
##  5     1 wt            2.62
##  6     1 qsec         16.5 
##  7     2 mpg          21   
##  8     2 disp        160   
##  9     2 hp          110   
## 10     2 drat          3.9 
## # ℹ 20 more rows
…
